{
    "title": "Privacy Policy",
    "meta": [
        {
            "name": "description",
            "content": "Obsessive Facts is full of amazing facts."
        },
        {
            "name": "keywords",
            "content": "ocd, shiba inu, facts"
        }
    ],
    "scripts": [
    ],
    "stylesheets": [
        "static-content"
    ]
}